Regression
…
augment funtion in broom provides original data along with fitted values, residuals, Cooks distance (influence of a data point) etc.

library(broom)

## Warning: package 'broom' was built under R version 3.4.4

(mod = augment(model))

## # A tibble: 32 x 10
##    .rownames        mpg  disp .fitted .se.fit .resid   .hat .sigma .cooksd
##  * <chr>          <dbl> <dbl>   <dbl>   <dbl>  <dbl>  <dbl>  <dbl>   <dbl>
##  1 Mazda RX4       21    160     23.0   0.664 -2.01  0.0418   3.29 8.65e-3
##  2 Mazda RX4 Wag   21    160     23.0   0.664 -2.01  0.0418   3.29 8.65e-3
##  3 Datsun 710      22.8  108     25.1   0.815 -2.35  0.0629   3.28 1.87e-2
##  4 Hornet 4 Drive  21.4  258     19.0   0.589  2.43  0.0328   3.27 9.83e-3
##  5 Hornet Sporta~  18.7  360     14.8   0.838  3.94  0.0663   3.22 5.58e-2
##  6 Valiant         18.1  225     20.3   0.575 -2.23  0.0313   3.28 7.82e-3
##  7 Duster 360      14.3  360     14.8   0.838 -0.462 0.0663   3.31 7.70e-4
##  8 Merc 240D       24.4  147.    23.6   0.698  0.846 0.0461   3.30 1.72e-3
##  9 Merc 230        22.8  141.    23.8   0.714 -0.997 0.0482   3.30 2.50e-3
## 10 Merc 280        19.2  168.    22.7   0.647 -3.49  0.0396   3.24 2.48e-2
## # ... with 22 more rows, and 1 more variable: .std.resid <dbl>
…
Prediction

additional = data.frame(hp = 140, cyl = as.factor(6))
predict(mod2, additional)

##        1 
## 19.31703

augment(mod2, additional)

## # A tibble: 32 x 9
##       hp cyl   .fitted .se.fit  .resid   .hat .sigma   .cooksd .std.resid
##  * <dbl> <fct>   <dbl>   <dbl>   <dbl>  <dbl>  <dbl>     <dbl>      <dbl>
##  1   140 6        20.0   1.20   0.962  0.146    3.20 0.00470       0.331 
##  2   140 6        20.0   1.20   0.962  0.146    3.20 0.00470       0.331 
##  3   140 6        26.4   0.962 -3.61   0.0935   3.12 0.0375       -1.21  
##  4   140 6        20.0   1.20   1.36   0.146    3.19 0.00942       0.469 
##  5   140 6        15.9   0.992  2.78   0.0995   3.15 0.0239        0.930 
##  6   140 6        20.2   1.22  -2.06   0.150    3.18 0.0222       -0.710 
##  7   140 6        14.2   1.01   0.0602 0.102    3.20 0.0000116     0.0202
##  8   140 6        27.2   1.00  -2.76   0.101    3.15 0.0241       -0.925 
##  9   140 6        26.4   0.968 -3.57   0.0946   3.12 0.0371       -1.19  
## 10   140 6        19.7   1.19  -0.526  0.143    3.20 0.00136      -0.180 
## # ... with 22 more rows
…
