Inference
…
rep_sample_n <- function(tbl, size, replace = FALSE, reps = 1)
{
    n <- nrow(tbl)
    i <- unlist(replicate(reps, sample.int(n, size, replace = replace), 
                          simplify = FALSE))

    rep_tbl <- cbind(replicate = rep(1:reps,rep(size,reps)), tbl[i,])

    dplyr::group_by(rep_tbl, replicate)
}
# Sample the entire data frame 5 times
val %>%
  rep_sample_n(size = nrow(val), reps = 5) 

## # A tibble: 240 x 3
## # Groups:   replicate [5]
##    replicate admission      race 
##  *     <int> <fct>          <fct>
##  1         1 admitted       black
##  2         1 not_admitteted black
##  3         1 admitted       white
##  4         1 admitted       white
##  5         1 not_admitteted white
##  6         1 admitted       black
##  7         1 admitted       black
##  8         1 not_admitteted black
##  9         1 admitted       black
## 10         1 not_admitteted black
## # ... with 230 more rows

# Shuffle the admission variable within replicate. 
val %>%
  rep_sample_n(size = nrow(val), reps = 5) %>%
  mutate(adm_perm = sample(admission)) 

## # A tibble: 240 x 4
## # Groups:   replicate [5]
##    replicate admission      race  adm_perm      
##        <int> <fct>          <fct> <fct>         
##  1         1 admitted       white admitted      
##  2         1 not_admitteted black admitted      
##  3         1 admitted       black not_admitteted
##  4         1 admitted       black admitted      
##  5         1 not_admitteted black admitted      
##  6         1 admitted       white admitted      
##  7         1 admitted       black admitted      
##  8         1 admitted       white admitted      
##  9         1 admitted       white admitted      
## 10         1 not_admitteted white admitted      
## # ... with 230 more rows
…
## 
## Attaching package: 'infer'

## The following object is masked _by_ '.GlobalEnv':
## 
##     rep_sample_n

bootstrap = promotions %>%
  specify(response = Satisfaction, success = "Happy") %>%
  generate(reps = 300, type = "bootstrap") %>%
  calculate(stat = "prop")
bootstrap

## # A tibble: 300 x 2
##    replicate  stat
##        <int> <dbl>
##  1         1 0.63 
##  2         2 0.635
##  3         3 0.61 
##  4         4 0.64 
##  5         5 0.585
##  6         6 0.675
##  7         7 0.675
##  8         8 0.62 
##  9         9 0.59 
## 10        10 0.55 
## # ... with 290 more rows
…
